<svg width="684" height="99" viewBox="0 0 684 99" fill="none" xmlns="http://www.w3.org/2000/svg">
<g clip-path="url(#clip0_34_2)" filter="url(#filter0_d_34_2)">
<path d="M200.362 67.6309C194.482 67.6309 189.082 66.2509 184.162 63.4909C179.242 60.7309 175.342 56.9209 172.462 52.0609C169.582 47.1409 168.142 41.5909 168.142 35.4109C168.142 29.2909 169.582 23.8009 172.462 18.9409C175.342 14.0209 179.242 10.1809 184.162 7.42087C189.082 4.66087 194.482 3.28088 200.362 3.28088C206.302 3.28088 211.702 4.66087 216.562 7.42087C221.482 10.1809 225.352 14.0209 228.172 18.9409C231.052 23.8009 232.492 29.2909 232.492 35.4109C232.492 41.5909 231.052 47.1409 228.172 52.0609C225.352 56.9209 221.482 60.7309 216.562 63.4909C211.642 66.2509 206.242 67.6309 200.362 67.6309ZM200.362 56.3809C204.142 56.3809 207.472 55.5409 210.352 53.8609C213.232 52.1209 215.482 49.6609 217.102 46.4809C218.722 43.3009 219.532 39.6109 219.532 35.4109C219.532 31.2109 218.722 27.5509 217.102 24.4309C215.482 21.2509 213.232 18.8209 210.352 17.1409C207.472 15.4609 204.142 14.6209 200.362 14.6209C196.582 14.6209 193.222 15.4609 190.282 17.1409C187.402 18.8209 185.152 21.2509 183.532 24.4309C181.912 27.5509 181.102 31.2109 181.102 35.4109C181.102 39.6109 181.912 43.3009 183.532 46.4809C185.152 49.6609 187.402 52.1209 190.282 53.8609C193.222 55.5409 196.582 56.3809 200.362 56.3809ZM252.666 24.3409C254.286 22.0609 256.506 20.1709 259.326 18.6709C262.206 17.1109 265.476 16.3309 269.136 16.3309C273.396 16.3309 277.236 17.3809 280.656 19.4809C284.136 21.5809 286.866 24.5809 288.846 28.4809C290.886 32.3209 291.906 36.7909 291.906 41.8909C291.906 46.9909 290.886 51.5209 288.846 55.4809C286.866 59.3809 284.136 62.4109 280.656 64.5709C277.236 66.7309 273.396 67.8109 269.136 67.8109C265.476 67.8109 262.236 67.0609 259.416 65.5609C256.656 64.0609 254.406 62.1709 252.666 59.8909V90.7609H240.066V17.1409H252.666V24.3409ZM279.036 41.8909C279.036 38.8909 278.406 36.3109 277.146 34.1509C275.946 31.9309 274.326 30.2509 272.286 29.1109C270.306 27.9709 268.146 27.4009 265.806 27.4009C263.526 27.4009 261.366 28.0009 259.326 29.2009C257.346 30.3409 255.726 32.0209 254.466 34.2409C253.266 36.4609 252.666 39.0709 252.666 42.0709C252.666 45.0709 253.266 47.6809 254.466 49.9009C255.726 52.1209 257.346 53.8309 259.326 55.0309C261.366 56.1709 263.526 56.7409 265.806 56.7409C268.146 56.7409 270.306 56.1409 272.286 54.9409C274.326 53.7409 275.946 52.0309 277.146 49.8109C278.406 47.5909 279.036 44.9509 279.036 41.8909ZM345.612 40.9909C345.612 42.7909 345.492 44.4109 345.252 45.8509H308.802C309.102 49.4509 310.362 52.2709 312.582 54.3109C314.802 56.3509 317.532 57.3709 320.772 57.3709C325.452 57.3709 328.782 55.3609 330.762 51.3409H344.352C342.912 56.1409 340.152 60.1009 336.072 63.2209C331.992 66.2809 326.982 67.8109 321.042 67.8109C316.242 67.8109 311.922 66.7609 308.082 64.6609C304.302 62.5009 301.332 59.4709 299.172 55.5709C297.072 51.6709 296.022 47.1709 296.022 42.0709C296.022 36.9109 297.072 32.3809 299.172 28.4809C301.272 24.5809 304.212 21.5809 307.992 19.4809C311.772 17.3809 316.122 16.3309 321.042 16.3309C325.782 16.3309 330.012 17.3509 333.732 19.3909C337.512 21.4309 340.422 24.3409 342.462 28.1209C344.562 31.8409 345.612 36.1309 345.612 40.9909ZM332.562 37.3909C332.502 34.1509 331.332 31.5709 329.052 29.6509C326.772 27.6709 323.982 26.6809 320.682 26.6809C317.562 26.6809 314.922 27.6409 312.762 29.5609C310.662 31.4209 309.372 34.0309 308.892 37.3909H332.562ZM380.639 16.4209C386.579 16.4209 391.379 18.3109 395.039 22.0909C398.699 25.8109 400.529 31.0309 400.529 37.7509V67.0009H387.929V39.4609C387.929 35.5009 386.939 32.4709 384.959 30.3709C382.979 28.2109 380.279 27.1309 376.859 27.1309C373.379 27.1309 370.619 28.2109 368.579 30.3709C366.599 32.4709 365.609 35.5009 365.609 39.4609V67.0009H353.009V17.1409H365.609V23.3509C367.289 21.1909 369.419 19.5109 371.999 18.3109C374.639 17.0509 377.519 16.4209 380.639 16.4209ZM479.201 4.18088V67.0009H466.601V26.1409L449.771 67.0009H440.231L423.311 26.1409V67.0009H410.711V4.18088H425.021L445.001 50.8909L464.981 4.18088H479.201ZM536.208 40.9909C536.208 42.7909 536.088 44.4109 535.848 45.8509H499.398C499.698 49.4509 500.958 52.2709 503.178 54.3109C505.398 56.3509 508.128 57.3709 511.368 57.3709C516.048 57.3709 519.378 55.3609 521.358 51.3409H534.948C533.508 56.1409 530.748 60.1009 526.668 63.2209C522.588 66.2809 517.578 67.8109 511.638 67.8109C506.838 67.8109 502.518 66.7609 498.678 64.6609C494.898 62.5009 491.928 59.4709 489.768 55.5709C487.668 51.6709 486.618 47.1709 486.618 42.0709C486.618 36.9109 487.668 32.3809 489.768 28.4809C491.868 24.5809 494.808 21.5809 498.588 19.4809C502.368 17.3809 506.718 16.3309 511.638 16.3309C516.378 16.3309 520.608 17.3509 524.328 19.3909C528.108 21.4309 531.018 24.3409 533.058 28.1209C535.158 31.8409 536.208 36.1309 536.208 40.9909ZM523.158 37.3909C523.098 34.1509 521.928 31.5709 519.648 29.6509C517.368 27.6709 514.578 26.6809 511.278 26.6809C508.158 26.6809 505.518 27.6409 503.358 29.5609C501.258 31.4209 499.968 34.0309 499.488 37.3909H523.158ZM556.205 24.8809C557.825 22.2409 559.925 20.1709 562.505 18.6709C565.145 17.1709 568.145 16.4209 571.505 16.4209V29.6509H568.175C564.215 29.6509 561.215 30.5809 559.175 32.4409C557.195 34.3009 556.205 37.5409 556.205 42.1609V67.0009H543.605V17.1409H556.205V24.8809ZM574.952 42.0709C574.952 36.9109 576.002 32.4109 578.102 28.5709C580.202 24.6709 583.112 21.6709 586.832 19.5709C590.552 17.4109 594.812 16.3309 599.612 16.3309C605.792 16.3309 610.892 17.8909 614.912 21.0109C618.992 24.0709 621.722 28.3909 623.102 33.9709H609.512C608.792 31.8109 607.562 30.1309 605.822 28.9309C604.142 27.6709 602.042 27.0409 599.522 27.0409C595.922 27.0409 593.072 28.3609 590.972 31.0009C588.872 33.5809 587.822 37.2709 587.822 42.0709C587.822 46.8109 588.872 50.5009 590.972 53.1409C593.072 55.7209 595.922 57.0109 599.522 57.0109C604.622 57.0109 607.952 54.7309 609.512 50.1709H623.102C621.722 55.5709 618.992 59.8609 614.912 63.0409C610.832 66.2209 605.732 67.8109 599.612 67.8109C594.812 67.8109 590.552 66.7609 586.832 64.6609C583.112 62.5009 580.202 59.5009 578.102 55.6609C576.002 51.7609 574.952 47.2309 574.952 42.0709ZM658.613 16.4209C662.393 16.4209 665.753 17.2609 668.693 18.9409C671.633 20.5609 673.913 22.9909 675.533 26.2309C677.213 29.4109 678.053 33.2509 678.053 37.7509V67.0009H665.453V39.4609C665.453 35.5009 664.463 32.4709 662.483 30.3709C660.503 28.2109 657.803 27.1309 654.383 27.1309C650.903 27.1309 648.143 28.2109 646.103 30.3709C644.123 32.4709 643.133 35.5009 643.133 39.4609V67.0009H630.533V0.400879H643.133V23.3509C644.753 21.1909 646.913 19.5109 649.613 18.3109C652.313 17.0509 655.313 16.4209 658.613 16.4209Z" fill="#E2E2E2"/>
<path d="M47.5988 89.1976C71.6777 89.1976 91.1976 69.6777 91.1976 45.5988C91.1976 21.5198 71.6777 2 47.5988 2C23.5198 2 4 21.5198 4 45.5988C4 69.6777 23.5198 89.1976 47.5988 89.1976Z" fill="#EFD700"/>
<path d="M64.3674 89.1976C88.4463 89.1976 107.966 69.6777 107.966 45.5988C107.966 21.5198 88.4463 2 64.3674 2C40.2884 2 20.7686 21.5198 20.7686 45.5988C20.7686 69.6777 40.2884 89.1976 64.3674 89.1976Z" fill="#C949DA" fill-opacity="0.9"/>
<path d="M137.95 13.7383L105.74 46.9382L70.659 16.2001M69.3994 77.4597C69.3994 53.0295 69.3994 39.3325 69.3994 14.9023V77.4597ZM138.151 77.4597V14.9023V77.4597Z" stroke="#3772FF" stroke-width="19" stroke-linecap="round"/>
<g style="mix-blend-mode:color-burn">
<g style="mix-blend-mode:color-burn">
<path d="M64.3674 89.1976C88.4463 89.1976 107.966 69.6777 107.966 45.5988C107.966 21.5198 88.4463 2 64.3674 2C40.2884 2 20.7686 21.5198 20.7686 45.5988C20.7686 69.6777 40.2884 89.1976 64.3674 89.1976Z" fill="#FF5555"/>
</g>
</g>
<path d="M642.711 83.3472H639.648L639.631 82.0605H642.412C642.871 82.0605 643.273 81.9831 643.616 81.8281C643.959 81.6732 644.224 81.4518 644.413 81.1641C644.606 80.8708 644.703 80.5221 644.703 80.1182C644.703 79.6755 644.617 79.3158 644.446 79.0391C644.28 78.7568 644.022 78.5521 643.674 78.4248C643.331 78.292 642.894 78.2256 642.362 78.2256H640.005V89H638.403V76.9141H642.362C642.982 76.9141 643.535 76.9777 644.022 77.105C644.509 77.2267 644.922 77.4204 645.259 77.686C645.602 77.9461 645.862 78.2782 646.04 78.6821C646.217 79.0861 646.305 79.5703 646.305 80.1348C646.305 80.6328 646.178 81.0838 645.923 81.4878C645.669 81.8862 645.315 82.2127 644.861 82.4673C644.413 82.7218 643.887 82.8851 643.284 82.957L642.711 83.3472ZM642.636 89H639.017L639.922 87.6968H642.636C643.145 87.6968 643.577 87.6082 643.931 87.4312C644.291 87.2541 644.565 87.005 644.753 86.6841C644.941 86.3576 645.035 85.973 645.035 85.5303C645.035 85.082 644.955 84.6947 644.794 84.3682C644.634 84.0417 644.382 83.7899 644.039 83.6128C643.696 83.4357 643.253 83.3472 642.711 83.3472H640.428L640.445 82.0605H643.566L643.906 82.5254C644.487 82.5752 644.98 82.7412 645.384 83.0234C645.788 83.3001 646.095 83.6543 646.305 84.0859C646.521 84.5176 646.629 84.9935 646.629 85.5137C646.629 86.2663 646.463 86.9027 646.131 87.4229C645.804 87.9375 645.342 88.3304 644.745 88.6016C644.147 88.8672 643.444 89 642.636 89ZM656.673 87.6968V89H650.273V87.6968H656.673ZM650.597 76.9141V89H648.995V76.9141H650.597ZM655.826 82.1104V83.4136H650.273V82.1104H655.826ZM656.59 76.9141V78.2256H650.273V76.9141H656.59ZM663.289 76.9141V89H661.711V76.9141H663.289ZM667.173 76.9141V78.2256H657.835V76.9141H667.173ZM672.776 77.9849L668.775 89H667.14L671.747 76.9141H672.801L672.776 77.9849ZM676.13 89L672.121 77.9849L672.096 76.9141H673.15L677.773 89H676.13ZM675.922 84.5259V85.8374H669.132V84.5259H675.922Z" fill="white"/>
</g>
<defs>
<filter id="filter0_d_34_2" x="0" y="0" width="688" height="99" filterUnits="userSpaceOnUse" color-interpolation-filters="sRGB">
<feFlood flood-opacity="0" result="BackgroundImageFix"/>
<feColorMatrix in="SourceAlpha" type="matrix" values="0 0 0 0 0 0 0 0 0 0 0 0 0 0 0 0 0 0 127 0" result="hardAlpha"/>
<feOffset dy="4"/>
<feGaussianBlur stdDeviation="2"/>
<feComposite in2="hardAlpha" operator="out"/>
<feColorMatrix type="matrix" values="0 0 0 0 0 0 0 0 0 0 0 0 0 0 0 0 0 0 0.25 0"/>
<feBlend mode="normal" in2="BackgroundImageFix" result="effect1_dropShadow_34_2"/>
<feBlend mode="normal" in="SourceGraphic" in2="effect1_dropShadow_34_2" result="shape"/>
</filter>
<clipPath id="clip0_34_2">
<rect width="680" height="91" fill="white" transform="translate(4)"/>
</clipPath>
</defs>
</svg>
